<?xml version="1.0" encoding="utf-8"?>
<!-- Generator: Adobe Illustrator 16.0.0, SVG Export Plug-In . SVG Version: 6.00 Build 0)  -->
<!DOCTYPE svg PUBLIC "-//W3C//DTD SVG 1.1//EN" "http://www.w3.org/Graphics/SVG/1.1/DTD/svg11.dtd">
<svg version="1.1" id="Layer_1" xmlns="http://www.w3.org/2000/svg" xmlns:xlink="http://www.w3.org/1999/xlink" x="0px" y="0px"
	 width="15px" height="15px" viewBox="0 0 15 15" enable-background="new 0 0 15 15" xml:space="preserve">
<g>
	<path fill="#FFFFFF" d="M8.024,10.855c0,1.385-1.336,2.756-3.77,2.756c-2.12,0-3.912-0.863-3.912-2.248
		c0-1.406,1.642-2.763,3.754-2.763c0.236,0,0.442,0,0.664,0C4.469,8.315,4.255,7.98,4.255,7.552c0-0.25,0.064-0.506,0.186-0.721
		C4.319,6.846,4.198,6.846,4.083,6.846c-1.741,0-2.912-1.235-2.912-2.776c0-1.506,1.606-2.805,3.333-2.805c0.949,0,3.827,0,3.827,0
		L7.466,1.886h-1.22C7.06,2.192,7.481,3.12,7.481,4.091c0,0.806-0.436,1.498-1.078,1.991C5.789,6.575,5.675,6.774,5.675,7.181
		c0,0.357,0.657,0.95,1.014,1.184C7.688,9.093,8.024,9.758,8.024,10.855z M7.024,11.005c0-0.135-0.015-0.257-0.029-0.392
		C6.824,9.992,6.246,9.671,5.454,9.114C5.168,9.029,4.847,8.979,4.504,8.957c-1.47,0-2.776,0.899-2.776,1.999
		c0,1.113,1.049,2.049,2.526,2.049C6.317,13.005,7.024,12.119,7.024,11.005z M6.11,4.169C5.947,2.87,5.012,1.835,4.012,1.807
		C3.034,1.771,2.37,2.771,2.542,4.055c0.171,1.298,1.12,2.369,2.099,2.398C5.625,6.489,6.282,5.461,6.11,4.169z M14.961,4.005
		h-2.434v2.434h-0.613V4.005H9.48V3.391h2.434V0.958h0.613v2.434h2.434V4.005z"/>
</g>
</svg>
