<?xml version="1.0" encoding="utf-8"?>
<!-- Generator: Adobe Illustrator 16.0.0, SVG Export Plug-In . SVG Version: 6.00 Build 0)  -->
<!DOCTYPE svg PUBLIC "-//W3C//DTD SVG 1.1//EN" "http://www.w3.org/Graphics/SVG/1.1/DTD/svg11.dtd">
<svg version="1.1" id="Layer_1" xmlns="http://www.w3.org/2000/svg" xmlns:xlink="http://www.w3.org/1999/xlink" x="0px" y="0px"
	 width="150px" height="80px" viewBox="0 0 150 80" enable-background="new 0 0 150 80" xml:space="preserve">
<path fill="#CCCCCC" d="M75,2.156c-35.738,0-64.71,16.859-64.71,37.655c0,13.072,11.447,24.587,28.828,31.339l0,0l13.43-47.038l0,0
	c1.292-4.471,5.961-13.81,16.096-14.208c2.781-0.199,8.347,1.788,8.346,7.252c0,2.095-1.825,3.793-4.075,3.793
	s-4.075-1.699-4.075-3.793c0-2.095,1.824-3.793,4.075-3.793c-0.695-0.876-2.782-2.068-4.271-2.068c-1.491,0-4.968,0.596-7.154,8.047
	l0,0l-3.477,11.922h13.015l-5.564,19.672H58.56l4.917-17.288h-6.111L45.993,73.479l0,0c8.725,2.551,18.579,3.987,29.008,3.987
	c35.737,0,64.71-16.86,64.71-37.657C139.711,19.012,110.738,2.156,75,2.156L75,2.156L75,2.156L75,2.156z M47.03,33.039
	c-2.285,8.645-10.134,8.545-12.716,8.545l0,0h-5.067l-2.782,9.339h-7.451l7.65-26.825h-3.776l0.597-1.987h15.796l0,0
	C48.024,22.111,48.124,28.369,47.03,33.039L47.03,33.039L47.03,33.039L47.03,33.039z M85.643,50.945H69.448l11.524-17.288h-6.657
	l0.696-2.384h16.292L79.781,48.561h6.557L85.643,50.945L85.643,50.945L85.643,50.945z M111.678,41.604h-13.81l0,0
	c-0.995,3.181-1.591,7.254,1.093,7.354c2.682,0.1,4.172-2.584,5.066-5.266l0,0h6.755l0,0c-2.187,7.252-8.345,7.947-12.222,7.748
	c-8.244-0.496-9.338-5.662-7.549-11.228c2.284-7.351,7.152-9.934,13.113-9.934C112.771,30.478,112.771,37.631,111.678,41.604
	L111.678,41.604L111.678,41.604L111.678,41.604z M131.919,37.977c-2.058,0-3.874-1.687-3.724-4.071
	c-1.438,0.298-3.629,3.229-4.025,4.719l0,0l-3.576,12.318h-7.551l4.969-17.285h-2.982l0.695-2.385h10.531l-0.893,3.18l0,0
	c2.185-2.882,5.265-3.627,6.557-3.674c2.057,0,3.725,1.419,3.725,3.475C135.645,36.309,133.977,37.977,131.919,37.977
	L131.919,37.977L131.919,37.977L131.919,37.977z M98.568,39.594c0.693-2.186,1.688-7.153,5.164-7.153
	c3.478,0,1.688,5.266,1.193,7.153l0,0H98.568L98.568,39.594L98.568,39.594z M34.322,24.074h3.08l0,0
	c2.385,0.1,3.378,2.285,2.086,7.947c-1.292,5.664-4.272,7.551-6.557,7.551l0,0h-3.08L34.322,24.074L34.322,24.074L34.322,24.074z"/>
</svg>
